C:\Users\05906\Desktop\boot-examples-master\x-auth-security\src\main\java\demo\WebSecurityConfig.java
C:\Users\05906\Desktop\boot-examples-master\x-auth-security\src\main\java\demo\xauth\UserXAuthTokenController.java
C:\Users\05906\Desktop\boot-examples-master\x-auth-security\src\main\java\demo\xauth\TokenUtils.java
C:\Users\05906\Desktop\boot-examples-master\x-auth-security\src\main\java\demo\xauth\ErrorAspectRestService.java
C:\Users\05906\Desktop\boot-examples-master\x-auth-security\src\main\java\demo\xauth\XAuthTokenConfigurer.java
C:\Users\05906\Desktop\boot-examples-master\x-auth-security\src\main\java\demo\Application.java
C:\Users\05906\Desktop\boot-examples-master\x-auth-security\src\main\java\demo\NewsController.java
C:\Users\05906\Desktop\boot-examples-master\x-auth-security\src\main\java\demo\CsrfTokenResponseHeaderBindingFilter.java
C:\Users\05906\Desktop\boot-examples-master\x-auth-security\src\main\java\demo\CustomUserDetailsService.java
C:\Users\05906\Desktop\boot-examples-master\x-auth-security\src\main\java\demo\xauth\XAuthTokenFilter.java
